<?xml version="1.0" encoding="utf-8"?>
<!-- Generator: Adobe Illustrator 19.2.0, SVG Export Plug-In . SVG Version: 6.00 Build 0)  -->
<svg version="1.1" id="Calque_1" xmlns="http://www.w3.org/2000/svg" xmlns:xlink="http://www.w3.org/1999/xlink" x="0px" y="0px"
	 viewBox="0 0 35.3 34.5" style="enable-background:new 0 0 35.3 34.5;" xml:space="preserve">
<style type="text/css">
	.st0{fill:#EFEEEE;}
</style>
<g>
	<path class="st0" d="M8.5,12.6c-2.6,0-4.8,2.3-4.8,5s2.1,5,4.8,5s4.8-2.3,4.8-5S11.1,12.6,8.5,12.6z M8.5,21.1
		c-1.8,0-3.2-1.5-3.2-3.4s1.4-3.4,3.2-3.4s3.2,1.5,3.2,3.4S10.3,21.1,8.5,21.1z"/>
	<path class="st0" d="M26.6,12.6c-2.6,0-4.8,2.3-4.8,5s2.1,5,4.8,5s4.8-2.3,4.8-5S29.2,12.6,26.6,12.6z M26.6,21.1
		c-1.8,0-3.2-1.5-3.2-3.4s1.4-3.4,3.2-3.4s3.2,1.5,3.2,3.4S28.3,21.1,26.6,21.1z"/>
	<path class="st0" d="M15.8,16.2c-0.9,0-1.6,0.7-1.6,1.7c0,0.9,0.7,1.7,1.6,1.7s1.6-0.7,1.6-1.7C17.4,17,16.6,16.2,15.8,16.2z
		 M15.8,18C15.7,18,15.7,18,15.8,18c0-0.1,0-0.1,0-0.1C15.8,17.8,15.8,17.9,15.8,18C15.8,18,15.8,18,15.8,18z"/>
	<path class="st0" d="M19.7,16.2c-0.9,0-1.6,0.7-1.6,1.7c0,0.9,0.7,1.7,1.6,1.7s1.6-0.7,1.6-1.7C21.3,17,20.6,16.2,19.7,16.2z
		 M19.7,18C19.7,18,19.7,18,19.7,18c0-0.1,0-0.1,0-0.1C19.7,17.8,19.7,17.9,19.7,18C19.7,18,19.7,18,19.7,18z"/>
</g>
</svg>
